{
  "id": 2,
  "name": "Integrace",
  "type": "quiz",
  "chapters":[
    {
      "name": "Primitivní funkce",
      "content": [
        "Nechť jsou dány funkce F, f definované v otevřeném intervalu J. Jestliže pro všechna x J ∈ platí F x f x ( ) = ( ) , říkáme, že funkce F je primitivní funkcí k funkci f v intervalu J.",
        "Funkci F x( ) říkáme primitivní funkce k funkci",
        "Je-li funkce F v intervalu J primitivní funkcí k funkci f",
        " pak každá primitivní funkcek funkci f je tvaru F x C ( ) + , kde C R.",
        "Existují-li v otevřeném intervalu J primitivní funkce k funkcím 1"
        ]
    },
    {
      "name": "Výpočet neurčitých integrálů",
      "content": [
        "V minulé hodině jsme začali hledat primitivní funkce.",
        "Hledání primitivních funkcí nám usnadňovaly vzorce sestavené podle pravidel pro derivace",
        "V předchozím příkladu se samozřejmě opět opakují problémy s úpravou mocnin",
        "Musíme najít další vzorce, podle dalších pravidel pro derivace elementárních funkcí.",
        "Doplň tabulku neurčitých integrálů"
        ]
    },
    {
      "name": "Per partes",
      "content": [
        "Smutná zpráva: integrování je daleko obtížnější než derivování. ",
        "Neexistuje obecný vzorec pro integrování součinu a podílu, ani obecný vzorec pro integrování složených funkcí",
        "Dobrá zpráva: Existují ještě další metody, jak integrování usnadnit. ",
        "Metoda per partes (po částech) vychází ze vzorce pro derivování součinu",
        "Zkráceně píšeme: uv dx uv u v dx"
        ]
    },
    {
      "name": "Substituce",
      "content": [
        "V minulé hodině jsme sice neodvodili obecný vzorec pro integraci součinu funkcí, ale přesto se nám povedlo pomocí vzorce na derivování součinu vymyslet integrační metodu per partes, která nám umožnila spočítat některé jinak neřešitelné integrály.",
        "Vzorec pro derivaci podílu nám z tohoto pohledu nic nepřinese, podíváme se na vzorec pro derivování složené funkce. ",
        "Zkusíme konkrétní příklad:",
        "Člen 2 3x sice vnitřek integrálu komplikuje, ale integrování obrovsky usnadňuje",
        "Jaký význam má v integrálu nezbytný člen 2 3x dx ? "
        ]
    },
    {
      "name": "Určitý integrál",
      "content": [
        "V několika minulých hodinách jsme se učili integrovat - hledali jsme primitivní funkce. ",
        "integrování umožňuje sčítat nekonečně mnoho nekonečně malých kousků (podobně derivování umožňovalo určit podíl dvou nekonečně malých kousků), ",
        "integrování má něco společného s počítáním ploch (které si 'rozdělíme' na nekonečně mnoho nekonečně malých kousků).",
        "Nechť F je primitivní funkce k funkci f v intervalu I. ",
        "funkčních hodnot funkce F v libovolných bodech a, b tohoto intervalu se nazývá určitý integrál funkce f v mezích od a do b"
        ]
    }
  ],
  "questions": [
    {"question": "Derivace 2x", "answer": "2"},
    {"question": "Derivace xna2", "answer": "2x"},
    {"question": "Integrace 2x", "answer": "xna2 + c"}
  ]
}